%YAML 1.1
%TAG !u! tag:unity3d.com,2011:
--- !u!319 &31900000
AvatarMask:
  m_ObjectHideFlags: 0
  m_PrefabParentObject: {fileID: 0}
  m_PrefabInternal: {fileID: 0}
  m_Name: Sword
  m_Mask: 01000000010000000100000001000000010000000100000001000000010000000100000001000000010000000100000001000000
  m_Elements:
  - m_Path: 
    m_Weight: 1
  - m_Path: Player
    m_Weight: 1
  - m_Path: Player/Root
    m_Weight: 1
  - m_Path: Player/Root/Sword
    m_Weight: 1
  - m_Path: Player.Mesh
    m_Weight: 1
